*
*  Written: 09-Dec-2007 23:05:56*
*
BEGIN$DEF header
 bearing=90.000000000000
 dip=0.000000000000
 n_schemas=2.000000000000
 n_variables=26.000000000000
 plunge=0.000000000000
 x_origin=77800.000000000000
 y_origin=4200.000000000000
 z_origin=-350.000000000000
END$DEF header
*
BEGIN$DEF variable_1
 default='delete'
 description='geology code TQ1, TQ2, TQ1A '
 name='geology'
 type='name'
END$DEF variable_1
*
BEGIN$DEF variable_2
 default='-99'
 description='density in tonnes/metre'
 name='density'
 type='float'
END$DEF variable_2
*
BEGIN$DEF variable_3
 default='-99.0'
 description='AU grade in g/tonne, IDS'
 name='au_ids'
 type='float'
END$DEF variable_3
*
BEGIN$DEF variable_4
 default='-99.0'
 description='AU grade in g/tonne, ord.kriging'
 name='au_krg'
 type='float'
END$DEF variable_4
*
BEGIN$DEF variable_5
 default='-99.0'
 description='Dummy AU grade for nearest neighbour'
 name='au_nn'
 type='float'
END$DEF variable_5
*
BEGIN$DEF variable_6
 default='-99.0'
 description='CU grade (%/tonne), IDS'
 name='cu_ids'
 type='float'
END$DEF variable_6
*
BEGIN$DEF variable_7
 default='-99.0'
 description='CU grade (%/tonne), ordin.kriging'
 name='cu_krg'
 type='float'
END$DEF variable_7
*
BEGIN$DEF variable_8
 default='-99.0'
 description='Dummy CU grade for nearest neighbour'
 name='cu_nn'
 type='float'
END$DEF variable_8
*
BEGIN$DEF variable_9
 default='none'
 description='Ore classification'
 name='class'
 type='name'
END$DEF variable_9
*
BEGIN$DEF variable_10
 default='-99.0'
 description='AU_IDS cartesian average distance'
 name='aui_a_cdist'
 type='float'
END$DEF variable_10
*
BEGIN$DEF variable_11
 default='-99.0'
 description='AU_IDS cartesian weighted average distance'
 name='aui_w_cdist'
 type='float'
END$DEF variable_11
*
BEGIN$DEF variable_12
 default='-99.0'
 description='AU_ordin KRG cartesian average distance'
 name='auk_a_cdist'
 type='float'
END$DEF variable_12
*
BEGIN$DEF variable_13
 default='-99.0'
 description='AU_ordin KRG cartesian weighted average distance'
 name='auk_w_cdist'
 type='float'
END$DEF variable_13
*
BEGIN$DEF variable_14
 default='-99.0'
 description='AU_IDS # of samples used to estimate '
 name='aui_nsam'
 type='float'
END$DEF variable_14
*
BEGIN$DEF variable_15
 default='-99.0'
 description='AU_ordin.kriging -  # of samples used to estimate '
 name='auk_nsam'
 type='float'
END$DEF variable_15
*
BEGIN$DEF variable_16
 default='-99.0'
 description='AU_IDS # of drillholes which samples were used to estimate '
 name='aui_nhole'
 type='float'
END$DEF variable_16
*
BEGIN$DEF variable_17
 default='-99.0'
 description='AU_ordin.kriging # of drillholes which samples were used to estimate '
 name='auk_nhole'
 type='float'
END$DEF variable_17
*
BEGIN$DEF variable_18
 default='-99.0'
 description='CU_IDS cartesian average distance'
 name='cui_a_cdist'
 type='float'
END$DEF variable_18
*
BEGIN$DEF variable_19
 default='-99.0'
 description='CU_IDS cartesian weighted average distance'
 name='cui_w_cdist'
 type='float'
END$DEF variable_19
*
BEGIN$DEF variable_20
 default='-99.0'
 description='CU_ordin KRG cartesian average distance'
 name='cuk_a_cdist'
 type='float'
END$DEF variable_20
*
BEGIN$DEF variable_21
 default='-99.0'
 description='CU_ordin KRG cartesian weighted average distance'
 name='cuk_w_cdist'
 type='float'
END$DEF variable_21
*
BEGIN$DEF variable_22
 default='-99.0'
 description='CU_IDS # of samples used to estimate '
 name='cui_nsam'
 type='float'
END$DEF variable_22
*
BEGIN$DEF variable_23
 default='-99.0'
 description='CU_ordin.kriging -  # of samples used to estimate '
 name='cuk_nsam'
 type='float'
END$DEF variable_23
*
BEGIN$DEF variable_24
 default='-99.0'
 description='CU_IDS # of drillholes which samples were used to estimate '
 name='cui_nhole'
 type='float'
END$DEF variable_24
*
BEGIN$DEF variable_25
 default='-99.0'
 description='CU_ordin.kriging # of drillholes which samples were used to estimate '
 name='cuk_nhole'
 type='float'
END$DEF variable_25
*
BEGIN$DEF variable_26
 default='-99.0'
 description='Value of the block in US$ '
 name='dollar'
 type='float'
END$DEF variable_26
*
BEGIN$DEF schema_1
 block_max_x=50.000000000000
 block_max_y=50.000000000000
 block_max_z=50.000000000000
 block_min_x=50.000000000000
 block_min_y=50.000000000000
 block_min_z=50.000000000000
 description='all'
 schema_max_x=800.000000000000
 schema_max_y=700.000000000000
 schema_max_z=850.000000000000
 schema_min_x=0.000000000000
 schema_min_y=0.000000000000
 schema_min_z=0.000000000000
END$DEF schema_1
*
BEGIN$DEF schema_2
 block_max_x=50.000000000000
 block_max_y=50.000000000000
 block_max_z=50.000000000000
 block_min_x=2.500000000000
 block_min_y=2.500000000000
 block_min_z=2.500000000000
 description='sub'
 schema_max_x=800.000000000000
 schema_max_y=700.000000000000
 schema_max_z=850.000000000000
 schema_min_x=0.000000000000
 schema_min_y=0.000000000000
 schema_min_z=0.000000000000
END$DEF schema_2
*
BEGIN$DEF boundary_1
 inversion='Complete'
 priority=100.000000000000
 projection='Z'
 selection_file=' '
 triangulation='topo_area1_up60.00t'
 value='delete'
 variable='geology'
END$DEF boundary_1
*
BEGIN$DEF boundary_2
 inversion='Partial'
 priority=40.000000000000
 projection='Z'
 selection_file=' '
 triangulation='topo_area1_aerial.00t'
 value='air'
 variable='geology'
END$DEF boundary_2
*
BEGIN$DEF boundary_3
 inversion='None'
 priority=20.000000000000
 projection='Z'
 selection_file=' '
 triangulation='topo_area1_aerial.00t'
 value='waste'
 variable='geology'
END$DEF boundary_3
*
BEGIN$DEF boundary_4
 inversion='None'
 priority=30.000000000000
 projection='Z'
 selection_file=' '
 triangulation='ore_tq1.00t'
 value='tq1'
 variable='geology'
END$DEF boundary_4
*
BEGIN$DEF boundary_5
 inversion='None'
 priority=30.000000000000
 projection='Z'
 selection_file=' '
 triangulation='ore_tq1a.00t'
 value='tq1a'
 variable='geology'
END$DEF boundary_5
*
BEGIN$DEF boundary_6
 inversion='None'
 priority=30.000000000000
 projection='Z'
 selection_file=' '
 triangulation='ore_tq2.00t'
 value='tq2'
 variable='geology'
END$DEF boundary_6
*
BEGIN$DEF limit_1
 block_max_x=2.500000000000
 block_max_y=2.500000000000
 block_max_z=2.500000000000
 value='tq1'
 variable='geology'
END$DEF limit_1
*
BEGIN$DEF limit_2
 block_max_x=2.500000000000
 block_max_y=2.500000000000
 block_max_z=2.500000000000
 value='tq1a'
 variable='geology'
END$DEF limit_2
*
BEGIN$DEF limit_3
 block_max_x=2.500000000000
 block_max_y=2.500000000000
 block_max_z=2.500000000000
 value='tq2'
 variable='geology'
END$DEF limit_3
*
BEGIN$DEF exception_1
 condition='geology eqs "delete"'
END$DEF exception_1
*
BEGIN$DEF boundaries
 n_boundaries=6.000000000000
 n_exceptions=1.000000000000
 n_limits=3.000000000000
END$DEF boundaries
*
BEGIN$DEF file_format
 file_format='T'
END$DEF file_format
END$FILE
